…
``` r
mtcars_tidy = 
    mtcars %>% 
    as_tibble(rownames="Car name") %>% 
    
    # Scale
    mutate_at(vars(-`Car name`, -hp, -vs), scale) %>%
    
    # tidyfy
    gather(Property, Value, -`Car name`, -hp, -vs)

mtcars_tidy
```

    ## # A tibble: 288 x 5
    ##    `Car name`           hp    vs Property  Value
    ##    <chr>             <dbl> <dbl> <chr>     <dbl>
    ##  1 Mazda RX4           110     0 mpg       0.151
    ##  2 Mazda RX4 Wag       110     0 mpg       0.151
    ##  3 Datsun 710           93     1 mpg       0.450
    ##  4 Hornet 4 Drive      110     1 mpg       0.217
    ##  5 Hornet Sportabout   175     0 mpg      -0.231
    ##  6 Valiant             105     1 mpg      -0.330
    ##  7 Duster 360          245     0 mpg      -0.961
    ##  8 Merc 240D            62     1 mpg       0.715
    ##  9 Merc 230             95     1 mpg       0.450
    ## 10 Merc 280            123     1 mpg      -0.148
    ## # … with 278 more rows
…
