Input data frame
…
Row and/or columns colour annotations are easy to integrate just specifying one parameter (column names). 

Custom grouping of rows is easy to specify providing a grouped tbl. For example df %>% group_by(...)

Labels size adjusted by row and column total number

Default use of Brewer and Viridis palettes

Input data frame

Example of an input data frame

pasilla

## # A tibble: 504 x 7
##    sample   symbol `count normalised ad… condition type    location   activation
##    <chr>    <fct>                  <int> <fct>     <fct>   <chr>           <dbl>
##  1 treated1 Kal1                      37 treated   single… Secretory       1.10 
##  2 treated2 Kal1                      41 treated   paired… Secretory       1.10 
##  3 treated3 Kal1                      50 treated   paired… Secretory       1.10 
##  4 untreat… Kal1                    1127 untreated single… Secretory       1.10 
##  5 untreat… Kal1                    1046 untreated single… Secretory       1.10 
##  6 untreat… Kal1                     932 untreated paired… Secretory       1.10 
##  7 untreat… Kal1                    1018 untreated paired… Secretory       1.10 
##  8 treated1 Ant2                    2331 treated   single… Intracell…      0.329
##  9 treated2 Ant2                    2478 treated   paired… Intracell…      0.329
## 10 treated3 Ant2                    2575 treated   paired… Intracell…      0.329
## # … with 494 more rows
…
